[{
    "page_title": "Breckenridge Real Estate: selling dream-worthy homes in Summit County, Colorado",
    "category_html": "<section>\r\n<script src=\"https:\/\/tag.simpli.fi\/sifitag\/26b248b0-f247-0134-be18-0cc47a63c1a4\" async=\"\"><\/script>\r\n<div>#custom-section-two#<\/div>\r\n<div>#custom-section-top-five#<\/div>\r\n<div style=\"background: #ededed; padding: 40px; border-bottom: 1px solid #ddd;\">\r\n<h2 style=\"padding-top: 10px;\">Breckenridge Associates: Local Independent Real Estate<\/h2>\r\n<div class=\"custom-border\" style=\"background: #fff;\"><img style=\"border-bottom: 5px #fff solid; max-width: 450px;\" title=\"Breckenridge Associates Real Estate office on Main Street, Breckenridge, Colorado, 2017\" src=\"\/uploads\/agent-1\/BARE_20th_LOGO.png\" alt=\"Breckenridge Associates Real Estate office on Main Street, Breckenridge, Colorado\" width=\"100%\" \/><\/div>\r\n<p>When it comes to selling Breckenridge real estate and homes in surrounding Summit County who knows what's essential to living in Colorado's high country best? Local, independent real estate brokers like those at Breckenridge Associates Real Estate.&nbsp; Breckenridge Associates is made up of 17 professional, full time real estate brokers who welcome you to their historic home on Main Street. Every day of the week, an agent or staff will greet you, and personally guide you in selling or buying Summit and Park county properties,<\/p>\r\n<p>Each of the partners at Breckenridge Associates is a successful broker with his or her own specialties and strengths and each was vital in growing the top selling real estate company in Summit County. Together, they are known as a company with integrity and honesty, and for their support of local nonprofits and homegrown events. Individually, each broker knows their street, trails and neighborhoods and shares this with the company and its buyers and sellers. We're proud to say that more than 80 percent of these buyers and sellers return to Breckenridge Associates when they want to sell or buy property in Summit County.<\/p>\r\n<p>Market <a href=\"https:\/\/breckenridgeassociates.com\/statistics.php\">statistics<\/a> clearly show Breckenridge Associates sells more per agent than other companies with national brands and twice as many agents.<\/p>\r\n<p>If \"think global, shop local\" makes sense, you'll want to work with the Hometown Team that delivers World Class Service.<\/p>\r\n<p>What kind of Breckenridge home are you seeking? Where in Summit County are you searching for real estate? <a class=\"popup\" href=\"\/contact.php\">Connect<\/a> and let us know. We can help in ways you haven't even imagined.<\/p>\r\n<\/div>\r\n<hr \/>\r\n<div style=\"text-align: center; width: 100%;\"><a id=\"skiHomes\" class=\"buttonstyle small-caps \" style=\"padding: 1%; margin: 17px 10px 0;\" href=\"\/ski-in-ski-out-homes.php\">Search Ski-In \/ Ski-Out Homes<\/a> <a id=\"newListings\" class=\"buttonstyle small-caps \" style=\"padding: 1%; margin: 17px 10px 0;\" href=\"\/new-listings.php\">Search New Listings<\/a> <a id=\"golfHomes\" class=\"buttonstyle small-caps \" style=\"padding: 1%; margin: 17px 10px 0;\" href=\"\/golf.php\">Search for Golf Homes<\/a><\/div>\r\n<div>\r\n<p>&nbsp;<\/p>\r\n<h1>Your Hometown Team - Better Real Estate Search<\/h1>\r\n<div class=\"custom-border\"><img style=\"border-bottom: 5px #fff solid; max-width: 450px;\" title=\"Breckenridge Associates Real Estate office on Main Street, Breckenridge, Colorado, 2017\" src=\"\/uploads\/agent-1\/BreckAssoc2017o.jpg\" alt=\"Breckenridge Associates Real Estate office on Main Street, Breckenridge, Colorado\" width=\"100%\" \/><\/div>\r\n<p>If you're looking for a ski-in \/ ski-out condo, or bigger vacation home for sale, Breckenridge condos with no maintenance, a secluded cabin, your fishing getaway along the Blue River, a townhouse with roomy garage or just a great real estate investment - the independent, locally knowledgeable professionals at Breckenridge Associates Real Estate know how to find the best deals for you. For more than 20 years, our hometown team has been the most trusted name in Summit County Real Estate.<\/p>\r\n<p>Located in one of the last remaining Victorian houses on Main Street, Breckenridge, our office is at the center of the Summit real estate market. Surrounded by the historic downtown, <a href=\"http:\/\/breckenridgeassociates.com\/breckenridge.php\">Breckenridge<\/a> in-town homes or slope-side condos are out our backdoor. &nbsp;To the south is <a href=\"http:\/\/breckenridgeassociates.com\/warriors-mark.php\">Warriors Mark <\/a> with condos and homes that have access to skiing via Peaks 9 and 10 and the national forest. &nbsp;Family friendly neighborhoods abound in the community of <a href=\"http:\/\/breckenridgeassociates.com\/blue-river.php\">Blue River<\/a>, and further south over Hoosier Pass to the real Colorado communities of <a href=\"http:\/\/breckenridgeassociates.com\/park-county.php\">Park County<\/a>.<\/p>\r\n<div style=\"border: 5px solid #fff; box-shadow: 0 0 4px rgba(0,0,0,.15); border-bottom: 0; margin-left: 10px; float: right; margin-bottom: 1px;\"><img style=\"margin-bottom: 5px; max-width: 450px;\" title=\"Breckenridge Ski Resort beneath the Tenmile Range, and our office away from Main Street.\" src=\"\/uploads\/agent-1\/Breck2017o.jpg\" alt=\"Tenmile Range above Breckenridge, Colorado\" width=\"100%\" \/><\/div>\r\n<p>To the east are single-family homes, condos and duplexes, perfectly located on Baldy Mountain to take in the sunset over the Breckenridge ski area. Farther northeast is the quaint town of Montezuma surrounded by national forest, open space and tall peaks. A bit further north, along the Snake River, lies <a href=\"http:\/\/breckenridgeassociates.com\/keystone.php\">Keystone Ski Resort<\/a>. Summit Cove, and surrounding Lake Dillon, the towns of Dillon and <a href=\"http:\/\/breckenridgeassociates.com\/silverthorne.php\">Silverthorne<\/a>, where town living gets sparser and rural Colorado takes over.<\/p>\r\n<p>Just west of Silverthorne is <a href=\"http:\/\/breckenridgeassociates.com\/wildernest.php\">Wildernest<\/a>-a distinct neighborhood in its own. Located on a hill above the Lake, Wildernest can be a bargain if condo living is just what you want. The views are fantastic. National forest and public land surrounds most of the communities of Summit County, and Wildernest's elevation gives you a head start when you start from the trailheads in the neighborhood.<\/p>\r\n<p>A different kind of property can be found if you move counter-clockwise on the compass dial from Silverthorne and the northern point of Summit County's real estate market to the town of <a href=\"http:\/\/breckenridgeassociates.com\/frisco.php\">Frisco<\/a>. Frisco is 9 miles directly north of Breckenridge and is an easy to navigate small town where everything you need could be within a flat and steady bike ride. Further to the west on that compass dial, is <a href=\"http:\/\/breckenridgeassociates.com\/copper-mountain.php\">Copper Mountain<\/a>, a great ski resort with a variety of vacation homes to take advantage of the winter and summer recreation. Copper is a popular bike destination from Frisco along paths that gradually climb up Tenmile Canyon. From our office at the center of Summit County, Copper Mountain is&nbsp;just 5 miles away as the crow flies, but the vast Tenmile Range is between us.<\/p>\r\n<p style=\"text-align: center;\"><a class=\"buttonstyle small-caps colored-bg2\" style=\"margin: 17px 10px 0;\" href=\"\/about.php\">Read More About Breckenridge Associates Real Estate<\/a><\/p>\r\n<\/div>\r\n<div>&nbsp;#no-featured#<\/div>\r\n<div>#custom-section-three#<\/div>\r\n<\/section>",
    "footer": " | <a href=\"\/privacy-policy.php\">Privacy Policy<\/a>\r\n<script async src='https:\/\/tag.simpli.fi\/sifitag\/26b248b0-f247-0134-be18-0cc47a63c1a4'><\/script>\r\n\r\n",
    "meta_tag_keywords": "Breckenridge Hometown Team, Top 5 Real Estate Deals in Summit County, Breckenridge Living",
    "meta_tag_desc": "Realtors who are independent and local like the hometown team at Breckenridge Associates know Breckenridge Real Estate best. Search our most up-to-date active and sold property listings for Breckenridge and all of Summit County, Colorado.",
    "og_image[0]": "6824",
    "og_image[1]": "6843",
    "template": "homepage",
    "variables[homepage][feature]": "search",
    "variables[homepage][feature.heading]": "Search \u2935 or Scroll Down to Learn More",
    "variables[homepage][feature.searchText]": "Advanced Search",
    "variables[homepage][feature.searchUrl]": "\/idx\/?advanced",
    "variables[homepage][feature.position]": "center",
    "variables[homepage][showCommunities]": "1",
    "variables[homepage][showCommunities.title]": "Learn about Our Towns",
    "variables[homepage][showCommunities.subtitle]": "Summit & Park Counties",
    "variables[homepage][showCtas]": "1",
    "variables[promo-landing][feature.heading]": "Search Far & Wide.",
    "variables[rate][feature.ctaTitle]": "Your Property",
    "variables[rate][feature.ctaSubtitle]": "Guaranteed Sold",
    "variables[rate][feature.ctaLinkText]": "Find Out More",
    "variables[rate][feature.ctaLinkUrl]": "\/radio.php",
    "variables[rate][sub-feature.communitiesTitle]": "Featured Communities",
    "variables[rate][sub-feature.communitiesSubtitle]": ""
}]